{"count":64,"next":"https://pokeapi.co/api/v2/berry?offset=3&limit=3","previous":null,"results":[{"name":"cheri","url":"https://pokeapi.co/api/v2/berry/1/"},{"name":"chesto","url":"https://pokeapi.co/api/v2/berry/2/"},{"name":"pecha","url":"https://pokeapi.co/api/v2/berry/3/"}]}
