{"count":64,"next":"https://pokeapi.co/api/v2/berry?offset=2&limit=1","previous":"https://pokeapi.co/api/v2/berry?offset=0&limit=1","results":[{"name":"chesto","url":"https://pokeapi.co/api/v2/berry/2/"}]}
